﻿biomes.png=1924442636
biomes.png~=3476484820
checksums.txt=3538399222
dtm.raw=3606346325
dtm_processed.raw=1862643534
genHM.png=4115256730
main.ttw=3009317936
main.ttw.bak=3729523146
map_info.xml=614776867
prefabs.xml=845333372
spawnpoints.xml=3411375184
splat3.png=2001378733
splat3a.png=2001378733
splat3_processed.png=2467492461
splat4_processed.png=3236050971
water_info.xml=1542462955
